﻿{
  "Expiry": "None",
  "ServiceTimer": 5,
  "Connections": {
    "Name": "Anything",
    "ApiKey": "HJGFUYWE6567hgvhfd67sajkfwib-74638hwvdfag)(7356623482SBDFGVU67JEWHJYDAHWJE7hgsvkjsdf67wewjyusdfaj"
  },
  "MessageService": {
    "SenderId": "Bankyekrom",
    "BaseUrl": "http://bluma.azurewebsites.net/",
    "SendMessageUrl": "api/sendmessages",
    "CheckBalanceUrl": "api/checkbalance",
    "ApiKey": "dcwqcw76bl4035tgfcts50ghwds64fg063ns1oo07zcrwd7db8ov16sm5p48dab5",
    "IsActive": true,
  }
}